{"C:\\Users\\alexr\\Documents\\KairosDS\\Proyectos\\crud-litelement\\cypress\\integration\\posts.page.js": {"path":"C:\\Users\\alexr\\Documents\\KairosDS\\Proyectos\\crud-litelement\\cypress\\integration\\posts.page.js","statementMap":{"0":{"start":{"line":3,"column":0},"end":{"line":5,"column":3}},"1":{"start":{"line":4,"column":2},"end":{"line":4,"column":112}},"2":{"start":{"line":7,"column":0},"end":{"line":12,"column":3}},"3":{"start":{"line":8,"column":2},"end":{"line":8,"column":21}},"4":{"start":{"line":9,"column":2},"end":{"line":9,"column":59}},"5":{"start":{"line":10,"column":2},"end":{"line":10,"column":13}},"6":{"start":{"line":11,"column":2},"end":{"line":11,"column":94}},"7":{"start":{"line":14,"column":0},"end":{"line":21,"column":2}},"8":{"start":{"line":15,"column":2},"end":{"line":15,"column":20}},"9":{"start":{"line":16,"column":2},"end":{"line":16,"column":67}},"10":{"start":{"line":17,"column":2},"end":{"line":17,"column":66}},"11":{"start":{"line":18,"column":2},"end":{"line":18,"column":60}},"12":{"start":{"line":19,"column":2},"end":{"line":19,"column":12}},"13":{"start":{"line":20,"column":2},"end":{"line":20,"column":92}},"14":{"start":{"line":23,"column":0},"end":{"line":32,"column":2}},"15":{"start":{"line":24,"column":2},"end":{"line":24,"column":20}},"16":{"start":{"line":25,"column":2},"end":{"line":25,"column":81}},"17":{"start":{"line":26,"column":2},"end":{"line":26,"column":12}},"18":{"start":{"line":27,"column":2},"end":{"line":27,"column":91}},"19":{"start":{"line":28,"column":2},"end":{"line":28,"column":90}},"20":{"start":{"line":29,"column":2},"end":{"line":29,"column":60}},"21":{"start":{"line":30,"column":2},"end":{"line":30,"column":12}},"22":{"start":{"line":31,"column":2},"end":{"line":31,"column":154}},"23":{"start":{"line":34,"column":0},"end":{"line":41,"column":2}},"24":{"start":{"line":35,"column":2},"end":{"line":35,"column":20}},"25":{"start":{"line":36,"column":2},"end":{"line":36,"column":81}},"26":{"start":{"line":37,"column":2},"end":{"line":37,"column":12}},"27":{"start":{"line":38,"column":2},"end":{"line":38,"column":60}},"28":{"start":{"line":39,"column":2},"end":{"line":39,"column":12}},"29":{"start":{"line":40,"column":2},"end":{"line":40,"column":94}}},"fnMap":{"0":{"name":"(anonymous_0)","decl":{"start":{"line":3,"column":11},"end":{"line":3,"column":12}},"loc":{"start":{"line":3,"column":17},"end":{"line":5,"column":1}},"line":3},"1":{"name":"(anonymous_1)","decl":{"start":{"line":7,"column":54},"end":{"line":7,"column":55}},"loc":{"start":{"line":7,"column":60},"end":{"line":12,"column":1}},"line":7},"2":{"name":"(anonymous_2)","decl":{"start":{"line":14,"column":22},"end":{"line":14,"column":23}},"loc":{"start":{"line":14,"column":28},"end":{"line":21,"column":1}},"line":14},"3":{"name":"(anonymous_3)","decl":{"start":{"line":23,"column":25},"end":{"line":23,"column":26}},"loc":{"start":{"line":23,"column":31},"end":{"line":32,"column":1}},"line":23},"4":{"name":"(anonymous_4)","decl":{"start":{"line":34,"column":25},"end":{"line":34,"column":26}},"loc":{"start":{"line":34,"column":31},"end":{"line":41,"column":1}},"line":34}},"branchMap":{},"s":{"0":1,"1":4,"2":1,"3":1,"4":1,"5":1,"6":1,"7":1,"8":1,"9":1,"10":1,"11":1,"12":1,"13":1,"14":1,"15":1,"16":1,"17":1,"18":1,"19":1,"20":1,"21":1,"22":1,"23":1,"24":1,"25":1,"26":1,"27":1,"28":1,"29":1},"f":{"0":4,"1":1,"2":1,"3":1,"4":1},"b":{},"_coverageSchema":"1a1c01bbd47fc00a2c39e90264f33305004495a9","hash":"560adcb87bdc7cfaa5edfaf703887ab0293dcd82"}
,"C:\\Users\\alexr\\Documents\\KairosDS\\Proyectos\\crud-litelement\\src\\app.js": {"path":"C:\\Users\\alexr\\Documents\\KairosDS\\Proyectos\\crud-litelement\\src\\app.js","statementMap":{"0":{"start":{"line":5,"column":4},"end":{"line":16,"column":10}},"1":{"start":{"line":20,"column":4},"end":{"line":25,"column":6}},"2":{"start":{"line":29,"column":4},"end":{"line":33,"column":10}},"3":{"start":{"line":37,"column":4},"end":{"line":37,"column":19}},"4":{"start":{"line":38,"column":4},"end":{"line":38,"column":26}},"5":{"start":{"line":39,"column":20},"end":{"line":46,"column":6}},"6":{"start":{"line":47,"column":4},"end":{"line":47,"column":32}},"7":{"start":{"line":51,"column":0},"end":{"line":51,"column":49}},"8":{"start":{"line":53,"column":0},"end":{"line":55,"column":3}},"9":{"start":{"line":54,"column":2},"end":{"line":54,"column":45}}},"fnMap":{"0":{"name":"(anonymous_0)","decl":{"start":{"line":4,"column":2},"end":{"line":4,"column":3}},"loc":{"start":{"line":4,"column":23},"end":{"line":17,"column":3}},"line":4},"1":{"name":"(anonymous_1)","decl":{"start":{"line":19,"column":2},"end":{"line":19,"column":3}},"loc":{"start":{"line":19,"column":27},"end":{"line":26,"column":3}},"line":19},"2":{"name":"(anonymous_2)","decl":{"start":{"line":28,"column":2},"end":{"line":28,"column":3}},"loc":{"start":{"line":28,"column":12},"end":{"line":34,"column":3}},"line":28},"3":{"name":"(anonymous_3)","decl":{"start":{"line":36,"column":2},"end":{"line":36,"column":3}},"loc":{"start":{"line":36,"column":14},"end":{"line":48,"column":3}},"line":36},"4":{"name":"(anonymous_4)","decl":{"start":{"line":53,"column":47},"end":{"line":53,"column":48}},"loc":{"start":{"line":53,"column":53},"end":{"line":55,"column":1}},"line":53}},"branchMap":{},"s":{"0":7,"1":7,"2":0,"3":0,"4":0,"5":0,"6":0,"7":7,"8":7,"9":7},"f":{"0":7,"1":7,"2":0,"3":0,"4":7},"b":{},"_coverageSchema":"1a1c01bbd47fc00a2c39e90264f33305004495a9","hash":"51dce194f451aa782cdd2a5ebebd33c23a269a90"}
,"C:\\Users\\alexr\\Documents\\KairosDS\\Proyectos\\crud-litelement\\src\\main.js": {"path":"C:\\Users\\alexr\\Documents\\KairosDS\\Proyectos\\crud-litelement\\src\\main.js","statementMap":{"0":{"start":{"line":6,"column":0},"end":{"line":6,"column":23}}},"fnMap":{},"branchMap":{},"s":{"0":7},"f":{},"b":{},"_coverageSchema":"1a1c01bbd47fc00a2c39e90264f33305004495a9","hash":"32fa90a7d870ec938d7d1d94444e00d2e1d65466"}
,"C:\\Users\\alexr\\Documents\\KairosDS\\Proyectos\\crud-litelement\\src\\router.js": {"path":"C:\\Users\\alexr\\Documents\\KairosDS\\Proyectos\\crud-litelement\\src\\router.js","statementMap":{"0":{"start":{"line":5,"column":15},"end":{"line":5,"column":48}},"1":{"start":{"line":6,"column":15},"end":{"line":6,"column":33}},"2":{"start":{"line":8,"column":0},"end":{"line":12,"column":3}}},"fnMap":{},"branchMap":{},"s":{"0":7,"1":7,"2":7},"f":{},"b":{},"_coverageSchema":"1a1c01bbd47fc00a2c39e90264f33305004495a9","hash":"d13934b962a8a13880c0336301d457f364efd8d4"}
,"C:\\Users\\alexr\\Documents\\KairosDS\\Proyectos\\crud-litelement\\src\\components\\crud-posts.component.js": {"path":"C:\\Users\\alexr\\Documents\\KairosDS\\Proyectos\\crud-litelement\\src\\components\\crud-posts.component.js","statementMap":{"0":{"start":{"line":7,"column":4},"end":{"line":13,"column":10}},"1":{"start":{"line":17,"column":4},"end":{"line":17,"column":16}},"2":{"start":{"line":21,"column":0},"end":{"line":21,"column":47}}},"fnMap":{"0":{"name":"(anonymous_0)","decl":{"start":{"line":6,"column":2},"end":{"line":6,"column":3}},"loc":{"start":{"line":6,"column":12},"end":{"line":14,"column":3}},"line":6},"1":{"name":"(anonymous_1)","decl":{"start":{"line":16,"column":2},"end":{"line":16,"column":3}},"loc":{"start":{"line":16,"column":22},"end":{"line":18,"column":3}},"line":16}},"branchMap":{},"s":{"0":7,"1":7,"2":7},"f":{"0":7,"1":7},"b":{},"_coverageSchema":"1a1c01bbd47fc00a2c39e90264f33305004495a9","hash":"fa94faf529d4a803de027a21d781f4d362a3809c"}
,"C:\\Users\\alexr\\Documents\\KairosDS\\Proyectos\\crud-litelement\\src\\components\\layout.component.js": {"path":"C:\\Users\\alexr\\Documents\\KairosDS\\Proyectos\\crud-litelement\\src\\components\\layout.component.js","statementMap":{"0":{"start":{"line":5,"column":4},"end":{"line":28,"column":14}},"1":{"start":{"line":32,"column":4},"end":{"line":38,"column":10}},"2":{"start":{"line":42,"column":0},"end":{"line":42,"column":47}}},"fnMap":{"0":{"name":"(anonymous_0)","decl":{"start":{"line":4,"column":2},"end":{"line":4,"column":3}},"loc":{"start":{"line":4,"column":23},"end":{"line":29,"column":3}},"line":4},"1":{"name":"(anonymous_1)","decl":{"start":{"line":31,"column":2},"end":{"line":31,"column":3}},"loc":{"start":{"line":31,"column":12},"end":{"line":39,"column":3}},"line":31}},"branchMap":{},"s":{"0":7,"1":7,"2":7},"f":{"0":7,"1":7},"b":{},"_coverageSchema":"1a1c01bbd47fc00a2c39e90264f33305004495a9","hash":"3cb8a8ddd0881b91c1bcdd7ce37caed64f63c9e8"}
,"C:\\Users\\alexr\\Documents\\KairosDS\\Proyectos\\crud-litelement\\src\\components\\post-detail.component.js": {"path":"C:\\Users\\alexr\\Documents\\KairosDS\\Proyectos\\crud-litelement\\src\\components\\post-detail.component.js","statementMap":{"0":{"start":{"line":7,"column":4},"end":{"line":78,"column":10}},"1":{"start":{"line":82,"column":4},"end":{"line":82,"column":30}},"2":{"start":{"line":83,"column":4},"end":{"line":97,"column":7}},"3":{"start":{"line":84,"column":6},"end":{"line":84,"column":60}},"4":{"start":{"line":85,"column":6},"end":{"line":85,"column":66}},"5":{"start":{"line":86,"column":6},"end":{"line":86,"column":64}},"6":{"start":{"line":87,"column":6},"end":{"line":95,"column":7}},"7":{"start":{"line":88,"column":8},"end":{"line":88,"column":77}},"8":{"start":{"line":89,"column":8},"end":{"line":89,"column":31}},"9":{"start":{"line":90,"column":8},"end":{"line":90,"column":29}},"10":{"start":{"line":92,"column":8},"end":{"line":92,"column":76}},"11":{"start":{"line":93,"column":8},"end":{"line":93,"column":28}},"12":{"start":{"line":94,"column":8},"end":{"line":94,"column":29}},"13":{"start":{"line":96,"column":6},"end":{"line":96,"column":20}},"14":{"start":{"line":98,"column":4},"end":{"line":98,"column":64}},"15":{"start":{"line":102,"column":4},"end":{"line":102,"column":12}},"16":{"start":{"line":103,"column":4},"end":{"line":103,"column":24}},"17":{"start":{"line":104,"column":4},"end":{"line":104,"column":51}},"18":{"start":{"line":108,"column":4},"end":{"line":108,"column":17}},"19":{"start":{"line":109,"column":4},"end":{"line":109,"column":21}},"20":{"start":{"line":110,"column":4},"end":{"line":110,"column":20}},"21":{"start":{"line":111,"column":4},"end":{"line":111,"column":25}},"22":{"start":{"line":115,"column":4},"end":{"line":115,"column":64}},"23":{"start":{"line":116,"column":4},"end":{"line":116,"column":62}},"24":{"start":{"line":117,"column":4},"end":{"line":117,"column":58}},"25":{"start":{"line":118,"column":4},"end":{"line":118,"column":26}},"26":{"start":{"line":122,"column":4},"end":{"line":122,"column":28}},"27":{"start":{"line":123,"column":4},"end":{"line":123,"column":50}},"28":{"start":{"line":124,"column":4},"end":{"line":124,"column":43}},"29":{"start":{"line":125,"column":4},"end":{"line":125,"column":23}},"30":{"start":{"line":129,"column":4},"end":{"line":139,"column":5}},"31":{"start":{"line":130,"column":6},"end":{"line":130,"column":27}},"32":{"start":{"line":131,"column":6},"end":{"line":131,"column":52}},"33":{"start":{"line":132,"column":6},"end":{"line":132,"column":45}},"34":{"start":{"line":133,"column":6},"end":{"line":133,"column":25}},"35":{"start":{"line":135,"column":6},"end":{"line":135,"column":30}},"36":{"start":{"line":136,"column":6},"end":{"line":136,"column":52}},"37":{"start":{"line":137,"column":6},"end":{"line":137,"column":45}},"38":{"start":{"line":138,"column":6},"end":{"line":138,"column":25}},"39":{"start":{"line":143,"column":4},"end":{"line":167,"column":10}},"40":{"start":{"line":171,"column":0},"end":{"line":171,"column":49}}},"fnMap":{"0":{"name":"(anonymous_0)","decl":{"start":{"line":6,"column":2},"end":{"line":6,"column":3}},"loc":{"start":{"line":6,"column":23},"end":{"line":79,"column":3}},"line":6},"1":{"name":"(anonymous_1)","decl":{"start":{"line":81,"column":2},"end":{"line":81,"column":3}},"loc":{"start":{"line":81,"column":23},"end":{"line":99,"column":3}},"line":81},"2":{"name":"(anonymous_2)","decl":{"start":{"line":83,"column":21},"end":{"line":83,"column":22}},"loc":{"start":{"line":83,"column":27},"end":{"line":97,"column":5}},"line":83},"3":{"name":"(anonymous_3)","decl":{"start":{"line":101,"column":2},"end":{"line":101,"column":3}},"loc":{"start":{"line":101,"column":17},"end":{"line":105,"column":3}},"line":101},"4":{"name":"(anonymous_4)","decl":{"start":{"line":107,"column":2},"end":{"line":107,"column":3}},"loc":{"start":{"line":107,"column":17},"end":{"line":112,"column":3}},"line":107},"5":{"name":"(anonymous_5)","decl":{"start":{"line":114,"column":2},"end":{"line":114,"column":3}},"loc":{"start":{"line":114,"column":20},"end":{"line":119,"column":3}},"line":114},"6":{"name":"(anonymous_6)","decl":{"start":{"line":121,"column":2},"end":{"line":121,"column":3}},"loc":{"start":{"line":121,"column":18},"end":{"line":126,"column":3}},"line":121},"7":{"name":"(anonymous_7)","decl":{"start":{"line":128,"column":2},"end":{"line":128,"column":3}},"loc":{"start":{"line":128,"column":22},"end":{"line":140,"column":3}},"line":128},"8":{"name":"(anonymous_8)","decl":{"start":{"line":142,"column":2},"end":{"line":142,"column":3}},"loc":{"start":{"line":142,"column":12},"end":{"line":168,"column":3}},"line":142}},"branchMap":{"0":{"loc":{"start":{"line":87,"column":6},"end":{"line":95,"column":7}},"type":"if","locations":[{"start":{"line":87,"column":6},"end":{"line":95,"column":7}},{"start":{"line":91,"column":13},"end":{"line":95,"column":7}}],"line":87},"1":{"loc":{"start":{"line":129,"column":4},"end":{"line":139,"column":5}},"type":"if","locations":[{"start":{"line":129,"column":4},"end":{"line":139,"column":5}},{"start":{"line":134,"column":11},"end":{"line":139,"column":5}}],"line":129}},"s":{"0":7,"1":7,"2":7,"3":8,"4":8,"5":8,"6":8,"7":3,"8":3,"9":3,"10":5,"11":5,"12":5,"13":8,"14":7,"15":7,"16":7,"17":7,"18":5,"19":5,"20":5,"21":5,"22":5,"23":5,"24":5,"25":5,"26":1,"27":1,"28":1,"29":1,"30":4,"31":2,"32":2,"33":2,"34":2,"35":2,"36":2,"37":2,"38":2,"39":23,"40":7},"f":{"0":7,"1":7,"2":8,"3":7,"4":5,"5":5,"6":1,"7":4,"8":23},"b":{"0":[3,5],"1":[2,2]},"_coverageSchema":"1a1c01bbd47fc00a2c39e90264f33305004495a9","hash":"79ec92dd4c879c058805db14da5ee2eaf2d50fd1"}
,"C:\\Users\\alexr\\Documents\\KairosDS\\Proyectos\\crud-litelement\\src\\components\\posts.component.js": {"path":"C:\\Users\\alexr\\Documents\\KairosDS\\Proyectos\\crud-litelement\\src\\components\\posts.component.js","statementMap":{"0":{"start":{"line":12,"column":4},"end":{"line":44,"column":10}},"1":{"start":{"line":48,"column":4},"end":{"line":58,"column":6}},"2":{"start":{"line":62,"column":4},"end":{"line":62,"column":30}},"3":{"start":{"line":63,"column":4},"end":{"line":63,"column":61}},"4":{"start":{"line":64,"column":4},"end":{"line":64,"column":54}},"5":{"start":{"line":65,"column":28},"end":{"line":65,"column":49}},"6":{"start":{"line":66,"column":4},"end":{"line":66,"column":49}},"7":{"start":{"line":70,"column":4},"end":{"line":70,"column":12}},"8":{"start":{"line":71,"column":4},"end":{"line":71,"column":51}},"9":{"start":{"line":75,"column":28},"end":{"line":75,"column":49}},"10":{"start":{"line":76,"column":4},"end":{"line":76,"column":49}},"11":{"start":{"line":80,"column":4},"end":{"line":80,"column":56}},"12":{"start":{"line":81,"column":4},"end":{"line":81,"column":46}},"13":{"start":{"line":85,"column":19},"end":{"line":85,"column":31}},"14":{"start":{"line":86,"column":4},"end":{"line":108,"column":5}},"15":{"start":{"line":88,"column":8},"end":{"line":88,"column":59}},"16":{"start":{"line":89,"column":35},"end":{"line":89,"column":59}},"17":{"start":{"line":90,"column":8},"end":{"line":90,"column":94}},"18":{"start":{"line":91,"column":8},"end":{"line":91,"column":49}},"19":{"start":{"line":92,"column":8},"end":{"line":92,"column":31}},"20":{"start":{"line":93,"column":8},"end":{"line":93,"column":14}},"21":{"start":{"line":95,"column":8},"end":{"line":95,"column":31}},"22":{"start":{"line":96,"column":8},"end":{"line":96,"column":43}},"23":{"start":{"line":97,"column":8},"end":{"line":97,"column":49}},"24":{"start":{"line":98,"column":8},"end":{"line":98,"column":31}},"25":{"start":{"line":99,"column":8},"end":{"line":99,"column":14}},"26":{"start":{"line":101,"column":8},"end":{"line":101,"column":56}},"27":{"start":{"line":102,"column":23},"end":{"line":102,"column":59}},"28":{"start":{"line":103,"column":20},"end":{"line":103,"column":87}},"29":{"start":{"line":104,"column":8},"end":{"line":104,"column":29}},"30":{"start":{"line":105,"column":8},"end":{"line":105,"column":49}},"31":{"start":{"line":106,"column":8},"end":{"line":106,"column":31}},"32":{"start":{"line":107,"column":8},"end":{"line":107,"column":14}},"33":{"start":{"line":112,"column":27},"end":{"line":112,"column":47}},"34":{"start":{"line":113,"column":4},"end":{"line":113,"column":63}},"35":{"start":{"line":114,"column":4},"end":{"line":116,"column":5}},"36":{"start":{"line":115,"column":6},"end":{"line":115,"column":28}},"37":{"start":{"line":120,"column":27},"end":{"line":120,"column":47}},"38":{"start":{"line":121,"column":4},"end":{"line":121,"column":50}},"39":{"start":{"line":122,"column":4},"end":{"line":124,"column":5}},"40":{"start":{"line":123,"column":6},"end":{"line":123,"column":37}},"41":{"start":{"line":128,"column":30},"end":{"line":128,"column":54}},"42":{"start":{"line":129,"column":4},"end":{"line":129,"column":66}},"43":{"start":{"line":130,"column":4},"end":{"line":132,"column":5}},"44":{"start":{"line":131,"column":6},"end":{"line":131,"column":40}},"45":{"start":{"line":136,"column":4},"end":{"line":146,"column":10}},"46":{"start":{"line":150,"column":0},"end":{"line":150,"column":52}}},"fnMap":{"0":{"name":"(anonymous_0)","decl":{"start":{"line":11,"column":2},"end":{"line":11,"column":3}},"loc":{"start":{"line":11,"column":23},"end":{"line":45,"column":3}},"line":11},"1":{"name":"(anonymous_1)","decl":{"start":{"line":47,"column":2},"end":{"line":47,"column":3}},"loc":{"start":{"line":47,"column":27},"end":{"line":59,"column":3}},"line":47},"2":{"name":"(anonymous_2)","decl":{"start":{"line":61,"column":2},"end":{"line":61,"column":3}},"loc":{"start":{"line":61,"column":29},"end":{"line":67,"column":3}},"line":61},"3":{"name":"(anonymous_3)","decl":{"start":{"line":69,"column":2},"end":{"line":69,"column":3}},"loc":{"start":{"line":69,"column":17},"end":{"line":72,"column":3}},"line":69},"4":{"name":"(anonymous_4)","decl":{"start":{"line":74,"column":2},"end":{"line":74,"column":3}},"loc":{"start":{"line":74,"column":19},"end":{"line":77,"column":3}},"line":74},"5":{"name":"(anonymous_5)","decl":{"start":{"line":79,"column":2},"end":{"line":79,"column":3}},"loc":{"start":{"line":79,"column":14},"end":{"line":82,"column":3}},"line":79},"6":{"name":"(anonymous_6)","decl":{"start":{"line":84,"column":2},"end":{"line":84,"column":3}},"loc":{"start":{"line":84,"column":17},"end":{"line":109,"column":3}},"line":84},"7":{"name":"(anonymous_7)","decl":{"start":{"line":111,"column":2},"end":{"line":111,"column":3}},"loc":{"start":{"line":111,"column":34},"end":{"line":117,"column":3}},"line":111},"8":{"name":"(anonymous_8)","decl":{"start":{"line":119,"column":2},"end":{"line":119,"column":3}},"loc":{"start":{"line":119,"column":21},"end":{"line":125,"column":3}},"line":119},"9":{"name":"(anonymous_9)","decl":{"start":{"line":127,"column":2},"end":{"line":127,"column":3}},"loc":{"start":{"line":127,"column":37},"end":{"line":133,"column":3}},"line":127},"10":{"name":"(anonymous_10)","decl":{"start":{"line":135,"column":2},"end":{"line":135,"column":3}},"loc":{"start":{"line":135,"column":12},"end":{"line":147,"column":3}},"line":135}},"branchMap":{"0":{"loc":{"start":{"line":86,"column":4},"end":{"line":108,"column":5}},"type":"switch","locations":[{"start":{"line":87,"column":6},"end":{"line":93,"column":14}},{"start":{"line":94,"column":6},"end":{"line":99,"column":14}},{"start":{"line":100,"column":6},"end":{"line":107,"column":14}}],"line":86},"1":{"loc":{"start":{"line":114,"column":4},"end":{"line":116,"column":5}},"type":"if","locations":[{"start":{"line":114,"column":4},"end":{"line":116,"column":5}},{"start":{},"end":{}}],"line":114},"2":{"loc":{"start":{"line":122,"column":4},"end":{"line":124,"column":5}},"type":"if","locations":[{"start":{"line":122,"column":4},"end":{"line":124,"column":5}},{"start":{},"end":{}}],"line":122},"3":{"loc":{"start":{"line":130,"column":4},"end":{"line":132,"column":5}},"type":"if","locations":[{"start":{"line":130,"column":4},"end":{"line":132,"column":5}},{"start":{},"end":{}}],"line":130}},"s":{"0":7,"1":7,"2":7,"3":7,"4":7,"5":7,"6":7,"7":7,"8":7,"9":2,"10":2,"11":0,"12":0,"13":5,"14":5,"15":2,"16":2,"17":2,"18":2,"19":2,"20":2,"21":1,"22":1,"23":1,"24":1,"25":1,"26":2,"27":2,"28":2,"29":2,"30":2,"31":2,"32":2,"33":2,"34":2,"35":0,"36":0,"37":1,"38":1,"39":0,"40":0,"41":2,"42":2,"43":0,"44":0,"45":16,"46":7},"f":{"0":7,"1":7,"2":7,"3":7,"4":2,"5":0,"6":5,"7":2,"8":1,"9":2,"10":16},"b":{"0":[2,1,2],"1":[0,0],"2":[0,0],"3":[0,0]},"_coverageSchema":"1a1c01bbd47fc00a2c39e90264f33305004495a9","hash":"6165064708dd78bea1a992b020531c42cf576df2"}
,"C:\\Users\\alexr\\Documents\\KairosDS\\Proyectos\\crud-litelement\\src\\pages\\home.page.js": {"path":"C:\\Users\\alexr\\Documents\\KairosDS\\Proyectos\\crud-litelement\\src\\pages\\home.page.js","statementMap":{"0":{"start":{"line":6,"column":4},"end":{"line":6,"column":12}},"1":{"start":{"line":10,"column":4},"end":{"line":14,"column":6}},"2":{"start":{"line":18,"column":0},"end":{"line":18,"column":50}}},"fnMap":{"0":{"name":"(anonymous_0)","decl":{"start":{"line":5,"column":2},"end":{"line":5,"column":3}},"loc":{"start":{"line":5,"column":17},"end":{"line":7,"column":3}},"line":5},"1":{"name":"(anonymous_1)","decl":{"start":{"line":9,"column":2},"end":{"line":9,"column":3}},"loc":{"start":{"line":9,"column":23},"end":{"line":15,"column":3}},"line":9}},"branchMap":{},"s":{"0":0,"1":0,"2":7},"f":{"0":0,"1":0},"b":{},"_coverageSchema":"1a1c01bbd47fc00a2c39e90264f33305004495a9","hash":"24b0f0a9f1807f838113722b8a0ad22f56ab3ed2"}
,"C:\\Users\\alexr\\Documents\\KairosDS\\Proyectos\\crud-litelement\\src\\pages\\posts.page.js": {"path":"C:\\Users\\alexr\\Documents\\KairosDS\\Proyectos\\crud-litelement\\src\\pages\\posts.page.js","statementMap":{"0":{"start":{"line":7,"column":4},"end":{"line":10,"column":10}},"1":{"start":{"line":14,"column":4},"end":{"line":14,"column":16}},"2":{"start":{"line":18,"column":0},"end":{"line":18,"column":52}}},"fnMap":{"0":{"name":"(anonymous_0)","decl":{"start":{"line":6,"column":2},"end":{"line":6,"column":3}},"loc":{"start":{"line":6,"column":12},"end":{"line":11,"column":3}},"line":6},"1":{"name":"(anonymous_1)","decl":{"start":{"line":13,"column":2},"end":{"line":13,"column":3}},"loc":{"start":{"line":13,"column":22},"end":{"line":15,"column":3}},"line":13}},"branchMap":{},"s":{"0":7,"1":7,"2":7},"f":{"0":7,"1":7},"b":{},"_coverageSchema":"1a1c01bbd47fc00a2c39e90264f33305004495a9","hash":"94ce304fb82cf4f7ba19eca0cfdd08e56068ad03"}
,"C:\\Users\\alexr\\Documents\\KairosDS\\Proyectos\\crud-litelement\\src\\repositories\\posts.repository.js": {"path":"C:\\Users\\alexr\\Documents\\KairosDS\\Proyectos\\crud-litelement\\src\\repositories\\posts.repository.js","statementMap":{"0":{"start":{"line":5,"column":4},"end":{"line":7,"column":11}},"1":{"start":{"line":11,"column":17},"end":{"line":20,"column":6}},"2":{"start":{"line":21,"column":4},"end":{"line":21,"column":23}},"3":{"start":{"line":25,"column":17},"end":{"line":33,"column":6}},"4":{"start":{"line":34,"column":4},"end":{"line":34,"column":23}},"5":{"start":{"line":38,"column":17},"end":{"line":38,"column":107}},"6":{"start":{"line":39,"column":4},"end":{"line":39,"column":23}}},"fnMap":{"0":{"name":"(anonymous_0)","decl":{"start":{"line":4,"column":2},"end":{"line":4,"column":3}},"loc":{"start":{"line":4,"column":23},"end":{"line":8,"column":3}},"line":4},"1":{"name":"(anonymous_1)","decl":{"start":{"line":10,"column":2},"end":{"line":10,"column":3}},"loc":{"start":{"line":10,"column":35},"end":{"line":22,"column":3}},"line":10},"2":{"name":"(anonymous_2)","decl":{"start":{"line":24,"column":2},"end":{"line":24,"column":3}},"loc":{"start":{"line":24,"column":37},"end":{"line":35,"column":3}},"line":24},"3":{"name":"(anonymous_3)","decl":{"start":{"line":37,"column":2},"end":{"line":37,"column":3}},"loc":{"start":{"line":37,"column":24},"end":{"line":40,"column":3}},"line":37}},"branchMap":{},"s":{"0":9,"1":2,"2":0,"3":2,"4":0,"5":1,"6":0},"f":{"0":9,"1":2,"2":2,"3":1},"b":{},"_coverageSchema":"1a1c01bbd47fc00a2c39e90264f33305004495a9","hash":"f79407d8f75c896cc4fb5dd8606c7f21944dee66"}
,"C:\\Users\\alexr\\Documents\\KairosDS\\Proyectos\\crud-litelement\\src\\services\\utils.services.js": {"path":"C:\\Users\\alexr\\Documents\\KairosDS\\Proyectos\\crud-litelement\\src\\services\\utils.services.js","statementMap":{"0":{"start":{"line":3,"column":4},"end":{"line":3,"column":25}}},"fnMap":{"0":{"name":"(anonymous_0)","decl":{"start":{"line":2,"column":2},"end":{"line":2,"column":3}},"loc":{"start":{"line":2,"column":21},"end":{"line":4,"column":3}},"line":2}},"branchMap":{},"s":{"0":200},"f":{"0":200},"b":{},"_coverageSchema":"1a1c01bbd47fc00a2c39e90264f33305004495a9","hash":"47fadfa460d95b33168680f318f003bfe2dd7843"}
,"C:\\Users\\alexr\\Documents\\KairosDS\\Proyectos\\crud-litelement\\src\\states\\state.js": {"path":"C:\\Users\\alexr\\Documents\\KairosDS\\Proyectos\\crud-litelement\\src\\states\\state.js","statementMap":{"0":{"start":{"line":3,"column":21},"end":{"line":3,"column":70}}},"fnMap":{},"branchMap":{},"s":{"0":7},"f":{},"b":{},"_coverageSchema":"1a1c01bbd47fc00a2c39e90264f33305004495a9","hash":"f66c9f178248a701bff63a5634618a7426585f4c"}
,"C:\\Users\\alexr\\Documents\\KairosDS\\Proyectos\\crud-litelement\\src\\ui\\posts.ui.js": {"path":"C:\\Users\\alexr\\Documents\\KairosDS\\Proyectos\\crud-litelement\\src\\ui\\posts.ui.js","statementMap":{"0":{"start":{"line":10,"column":4},"end":{"line":15,"column":6}},"1":{"start":{"line":19,"column":4},"end":{"line":28,"column":10}},"2":{"start":{"line":32,"column":4},"end":{"line":32,"column":30}},"3":{"start":{"line":33,"column":4},"end":{"line":33,"column":63}},"4":{"start":{"line":37,"column":4},"end":{"line":37,"column":25}},"5":{"start":{"line":41,"column":4},"end":{"line":41,"column":12}},"6":{"start":{"line":42,"column":4},"end":{"line":42,"column":51}},"7":{"start":{"line":46,"column":4},"end":{"line":59,"column":10}},"8":{"start":{"line":48,"column":53},"end":{"line":57,"column":13}},"9":{"start":{"line":50,"column":18},"end":{"line":50,"column":37}},"10":{"start":{"line":51,"column":18},"end":{"line":51,"column":43}},"11":{"start":{"line":52,"column":18},"end":{"line":52,"column":41}},"12":{"start":{"line":53,"column":18},"end":{"line":53,"column":42}},"13":{"start":{"line":63,"column":0},"end":{"line":63,"column":43}}},"fnMap":{"0":{"name":"(anonymous_0)","decl":{"start":{"line":9,"column":2},"end":{"line":9,"column":3}},"loc":{"start":{"line":9,"column":27},"end":{"line":16,"column":3}},"line":9},"1":{"name":"(anonymous_1)","decl":{"start":{"line":18,"column":2},"end":{"line":18,"column":3}},"loc":{"start":{"line":18,"column":23},"end":{"line":29,"column":3}},"line":18},"2":{"name":"(anonymous_2)","decl":{"start":{"line":31,"column":2},"end":{"line":31,"column":3}},"loc":{"start":{"line":31,"column":23},"end":{"line":34,"column":3}},"line":31},"3":{"name":"(anonymous_3)","decl":{"start":{"line":36,"column":2},"end":{"line":36,"column":3}},"loc":{"start":{"line":36,"column":17},"end":{"line":38,"column":3}},"line":36},"4":{"name":"(anonymous_4)","decl":{"start":{"line":40,"column":2},"end":{"line":40,"column":3}},"loc":{"start":{"line":40,"column":17},"end":{"line":43,"column":3}},"line":40},"5":{"name":"(anonymous_5)","decl":{"start":{"line":45,"column":2},"end":{"line":45,"column":3}},"loc":{"start":{"line":45,"column":12},"end":{"line":60,"column":3}},"line":45},"6":{"name":"(anonymous_6)","decl":{"start":{"line":48,"column":43},"end":{"line":48,"column":44}},"loc":{"start":{"line":48,"column":53},"end":{"line":57,"column":13}},"line":48},"7":{"name":"(anonymous_7)","decl":{"start":{"line":49,"column":64},"end":{"line":49,"column":65}},"loc":{"start":{"line":49,"column":70},"end":{"line":54,"column":17}},"line":49}},"branchMap":{"0":{"loc":{"start":{"line":48,"column":14},"end":{"line":57,"column":14}},"type":"binary-expr","locations":[{"start":{"line":48,"column":14},"end":{"line":48,"column":24}},{"start":{"line":48,"column":28},"end":{"line":57,"column":14}}],"line":48}},"s":{"0":7,"1":7,"2":7,"3":7,"4":5,"5":7,"6":7,"7":21,"8":1301,"9":3,"10":3,"11":3,"12":3,"13":7},"f":{"0":7,"1":7,"2":7,"3":5,"4":7,"5":21,"6":1301,"7":3},"b":{"0":[21,14]},"_coverageSchema":"1a1c01bbd47fc00a2c39e90264f33305004495a9","hash":"3343799725828e08237df7a82c4f6ee2655ac97a"}
,"C:\\Users\\alexr\\Documents\\KairosDS\\Proyectos\\crud-litelement\\src\\usecases\\add-posts.usecase.js": {"path":"C:\\Users\\alexr\\Documents\\KairosDS\\Proyectos\\crud-litelement\\src\\usecases\\add-posts.usecase.js","statementMap":{"0":{"start":{"line":5,"column":23},"end":{"line":5,"column":44}},"1":{"start":{"line":6,"column":18},"end":{"line":6,"column":60}},"2":{"start":{"line":7,"column":4},"end":{"line":7,"column":17}}},"fnMap":{"0":{"name":"(anonymous_0)","decl":{"start":{"line":4,"column":2},"end":{"line":4,"column":3}},"loc":{"start":{"line":4,"column":34},"end":{"line":8,"column":3}},"line":4}},"branchMap":{},"s":{"0":2,"1":2,"2":0},"f":{"0":2},"b":{},"_coverageSchema":"1a1c01bbd47fc00a2c39e90264f33305004495a9","hash":"100ef2030334ff6e444c1987a74772cf2656b385"}
,"C:\\Users\\alexr\\Documents\\KairosDS\\Proyectos\\crud-litelement\\src\\usecases\\all-posts.usecase.js": {"path":"C:\\Users\\alexr\\Documents\\KairosDS\\Proyectos\\crud-litelement\\src\\usecases\\all-posts.usecase.js","statementMap":{"0":{"start":{"line":5,"column":23},"end":{"line":5,"column":44}},"1":{"start":{"line":6,"column":18},"end":{"line":6,"column":48}},"2":{"start":{"line":7,"column":4},"end":{"line":7,"column":17}}},"fnMap":{"0":{"name":"(anonymous_0)","decl":{"start":{"line":4,"column":2},"end":{"line":4,"column":3}},"loc":{"start":{"line":4,"column":19},"end":{"line":8,"column":3}},"line":4}},"branchMap":{},"s":{"0":7,"1":7,"2":7},"f":{"0":7},"b":{},"_coverageSchema":"1a1c01bbd47fc00a2c39e90264f33305004495a9","hash":"3077612f58fa4479e81d1000674386c530a82530"}
,"C:\\Users\\alexr\\Documents\\KairosDS\\Proyectos\\crud-litelement\\src\\usecases\\del-post.usecase.js": {"path":"C:\\Users\\alexr\\Documents\\KairosDS\\Proyectos\\crud-litelement\\src\\usecases\\del-post.usecase.js","statementMap":{"0":{"start":{"line":5,"column":23},"end":{"line":5,"column":44}},"1":{"start":{"line":6,"column":18},"end":{"line":6,"column":49}},"2":{"start":{"line":7,"column":4},"end":{"line":7,"column":17}}},"fnMap":{"0":{"name":"(anonymous_0)","decl":{"start":{"line":4,"column":2},"end":{"line":4,"column":3}},"loc":{"start":{"line":4,"column":21},"end":{"line":8,"column":3}},"line":4}},"branchMap":{},"s":{"0":1,"1":1,"2":0},"f":{"0":1},"b":{},"_coverageSchema":"1a1c01bbd47fc00a2c39e90264f33305004495a9","hash":"d6138b5f5201b68dc0e0e40ab8c77f4658b611f4"}
,"C:\\Users\\alexr\\Documents\\KairosDS\\Proyectos\\crud-litelement\\src\\usecases\\odd-posts.usecase.js": {"path":"C:\\Users\\alexr\\Documents\\KairosDS\\Proyectos\\crud-litelement\\src\\usecases\\odd-posts.usecase.js","statementMap":{"0":{"start":{"line":6,"column":23},"end":{"line":6,"column":44}},"1":{"start":{"line":7,"column":18},"end":{"line":7,"column":48}},"2":{"start":{"line":8,"column":21},"end":{"line":8,"column":72}},"3":{"start":{"line":8,"column":44},"end":{"line":8,"column":71}},"4":{"start":{"line":9,"column":4},"end":{"line":9,"column":20}}},"fnMap":{"0":{"name":"(anonymous_0)","decl":{"start":{"line":5,"column":2},"end":{"line":5,"column":3}},"loc":{"start":{"line":5,"column":19},"end":{"line":10,"column":3}},"line":5},"1":{"name":"(anonymous_1)","decl":{"start":{"line":8,"column":34},"end":{"line":8,"column":35}},"loc":{"start":{"line":8,"column":44},"end":{"line":8,"column":71}},"line":8}},"branchMap":{},"s":{"0":2,"1":2,"2":2,"3":200,"4":2},"f":{"0":2,"1":200},"b":{},"_coverageSchema":"1a1c01bbd47fc00a2c39e90264f33305004495a9","hash":"fd8d1b85aa5d2eec607fb95a16670196b0e6fd09"}
,"C:\\Users\\alexr\\Documents\\KairosDS\\Proyectos\\crud-litelement\\src\\usecases\\update-posts.usecase.js": {"path":"C:\\Users\\alexr\\Documents\\KairosDS\\Proyectos\\crud-litelement\\src\\usecases\\update-posts.usecase.js","statementMap":{"0":{"start":{"line":5,"column":16},"end":{"line":5,"column":21}},"1":{"start":{"line":6,"column":4},"end":{"line":6,"column":30}},"2":{"start":{"line":7,"column":4},"end":{"line":7,"column":28}},"3":{"start":{"line":9,"column":4},"end":{"line":9,"column":15}},"4":{"start":{"line":13,"column":23},"end":{"line":13,"column":44}},"5":{"start":{"line":14,"column":18},"end":{"line":14,"column":62}},"6":{"start":{"line":15,"column":4},"end":{"line":15,"column":17}}},"fnMap":{"0":{"name":"(anonymous_0)","decl":{"start":{"line":4,"column":2},"end":{"line":4,"column":3}},"loc":{"start":{"line":4,"column":34},"end":{"line":10,"column":3}},"line":4},"1":{"name":"(anonymous_1)","decl":{"start":{"line":12,"column":2},"end":{"line":12,"column":3}},"loc":{"start":{"line":12,"column":34},"end":{"line":16,"column":3}},"line":12}},"branchMap":{},"s":{"0":2,"1":2,"2":2,"3":2,"4":2,"5":2,"6":0},"f":{"0":2,"1":2},"b":{},"_coverageSchema":"1a1c01bbd47fc00a2c39e90264f33305004495a9","hash":"32db303380a101b1565a371aee06bf2f8eaa0ae4"}
}
